ST558 Final Project - Predictive Modeling of Diabetes Prevalence - Exploratory Data Analysis
…
                     median = \(x) median(x, na.rm = TRUE),
                     iqr = \(x) IQR(x, na.rm = TRUE),
                     min = \(x) min(x, na.rm = TRUE),
                     max = \(x) max(x, na.rm = TRUE),
                     n_missing = \(x) sum(is.na(x))
                   ))) |>
  pivot_longer(
    everything(),
    names_to = c("column", "stat"),
    names_pattern = "(.*)_(.*)",
    values_to = "values"
  )
num_summs

# A tibble: 21 × 3
   column   stat    values
   <chr>    <chr>    <dbl>
 1 BMI      mean     28.4 
 2 BMI      sd        6.61
 3 BMI      median   27   
 4 BMI      iqr       7   
 5 BMI      min      12   
 6 BMI      max      98   
 7 BMI_n    missing   0   
 8 MentHlth mean      3.18
 9 MentHlth sd        7.41
10 MentHlth median    0   
# ℹ 11 more rows
…
Code

# Create a summary table for missing values
missing_summ <- diabeetus |>
  summarize(across(everything(), \(x) sum(is.na(x)))) |>
  pivot_longer(everything(),
                names_to = "Variable",
                values_to = "Missing Count")
missing_summ

# A tibble: 22 × 2
   Variable             `Missing Count`
   <chr>                          <int>
 1 Diabetes_binary                    0
 2 HighBP                             0
 3 HighChol                           0
 4 CholCheck                          0
 5 BMI                                0
 6 Smoker                             0
 7 Stroke                             0
 8 HeartDiseaseorAttack               0
 9 PhysActivity                       0
10 Fruits                             0
# ℹ 12 more rows
…
